{
  "extends": "tslint:latest",
  "rules": {
    "interface-name": [true, "never-prefix"],
    "max-line-length": [false],
    "member-ordering": [
      true,
      {
        "order": [
          "static-field",
          "instance-field",
          "constructor",
          "public-instance-method",
          "protected-instance-method",
          "private-instance-method"
        ]
      }
    ],
    "no-console": [false],
    "no-duplicate-variable": true,
    "no-var-requires": false,
    "object-literal-sort-keys": false,
    "object-literal-shorthand": false,
    "one-line": [
      true,
      "check-open-brace",
      "check-catch",
      "check-whitespace"
    ],
    "ordered-imports": [false],
    "quotemark": [true, "single", "avoid-escape"],
    "semicolon": [true, "always", "ignore-bound-class-methods"]
  }
}
